{
  "project_info": {
    "project_number": "654753423944",
    "project_id": "notifyme-98679",
    "storage_bucket": "notifyme-98679.appspot.com"
  },
  "client": [
    {
      "client_info": {
        "mobilesdk_app_id": "1:654753423944:android:506565f03b109bb0f2ae7d",
        "android_client_info": {
          "package_name": "com.udacity.project4"
        }
      },
      "oauth_client": [
        {
          "client_id": "654753423944-np178bs7njnqm01undagnr9gv3cgkmrv.apps.googleusercontent.com",
          "client_type": 3
        }
      ],
      "api_key": [
        {
          "current_key": "AIzaSyAeKBah9u0cicoYXT614HxOxgRx8gK5xU8"
        }
      ],
      "services": {
        "appinvite_service": {
          "other_platform_oauth_client": [
            {
              "client_id": "654753423944-np178bs7njnqm01undagnr9gv3cgkmrv.apps.googleusercontent.com",
              "client_type": 3
            }
          ]
        }
      }
    }
  ],
  "configuration_version": "1"
}